

Docker Engine

#yum install docker 
#systemctl status docker 
#systemctl start docker
#systemctl restart docker
#docker search (image name)  (display images on dockerhub) docker.com expl -------
#docker pull (image name)  (download image from dockerhub)
#docker images  (display images on local docker engine)
#docker run -it --name container1 centos /bin/bash    (--it i for interactive t for terminal)
#docker ps    (display currently runing containers)
#docker ps -a (display on/off containers)  

#docker start container1
#docker stop container1
#docker attach container1
#Docker rm cntainer1

--------------------------------------------------------------------------------------------

nginx Pull images from dockerhub
	
#docker start container id
#docker rm container id
#docker images
#docker ps 
#docker ps -a
#docker run --name container1 -it nginx /bin/bash	
-------------------------------------------------------------------------------------------

centos Pull images from dockerhub
	
#docker start container id
#docker rm container id
#docker images
#docker ps 
#docker ps -a
docker run --name container2 -it centos /bin/bash
------------------------------------------------------------------------------------------
Create image and add volume
vi Dockerfile
#FROM centos
#VOLUME ["volume"]
#docker build -t test .
#docker images
#docker run --name cont1 -it test /bin/bash
#docker ps 
#ls
#Volume
#touch file1 file2 file3
--------------------------------------------------------------------------------------------

Create another container cont2
#docker run -it --name cont13 --privileged --volumes-from container1 centos /bin/bash

--------------------------------------------------------------------------------------------

Docker commit or edit in container

#docker images
#docker ps 
#docker ps -a
#docker attache container name
#ls
#
#docker commit 7d694f37622b newimage1
#Docker images

-----------------------------------------------------------------------------------------

Difference

#docker images
#docker run --name container1 -it nginx /bin/bash
#touch xyz ghs khe
#docker diff container name 
#ls
----------------------------------------------------------------------------------------

DockerFile detail

FROM:   	Platform ubuntu
RUN:		To excute cammands a layer form
MAITAINER: 	Author / owner 
COPY:		Copy from local system
ADD:		Download from Internet (extract files)	
EXPOSE:		Expose / Publish tcp port  
WORKDIR:	Working directory 
CMD:		Execute during container	
ENTRYPOINT:     Same as CMD but priority over CMD
ENV:  		Vairable set 

----------------------------------------------------------------------------------------------

Example -1 
How to create image in vi editor

#vi Dockerfile (create Dockerfile with D capital in vi editor)
#FROM ubutu
#RUN  echo " How are you" 
esc :wq
#docker build -t test .
#docker images
#docker run -it --name testcontainer updatedimage /bin/bash

----------------------------------------------------------------------------------------------
# FROM ubuntu

# RUN  echo " How are you" 
# ADD apt-get update
#:wq
#docker build -t myimage .
#docker images
#docker run -it -name test2 image name /bin/bash


create image from Dockerfile
#docker build -t myimage .
#docker ps  -a
# docker images
------------------------------------------------------------------------------------------------

Port maping or Port Expose
docker run -td --name webserver -p 80 (host port):80 (container port ) ubuntu /bin/bash (-d detached mode -t terminal)

--------------------------------------------------------------------------------------------------------
Port maping or Port Expose
#docker run -td --name webserver -p 80:80 ubuntu
#docker ps
#docker port container name
O/P
80/tcp --0.0.0.0/80

docker exec -it webserver /bin/bash
#apt-get update
#apt-get install apache2
#cd /va/www/html
#echo " hello " >index.html
#pblish on Internet public IP

--------------------------------------------------------------------------------------------------

#docker pull jenkins/jenkins
#docker images
#docker run -td --name myjenkins -p 8080:8080 jenkis/jenkins /bin/bash

#docker port container name
O/P
80/tcp --0.0.0.0/80
docker exec -it webserver /bin/bash
--------------------------------------------------------------------------------------------------


docker image push to docker hub

docker login:tassdaq@gmail.com
password XXXXXXXX

#docker tag ubuntu newtest12/project1
#docker push newtest12/project1

-------------------------------------------------------------------------------------------------

#docker stop $ (docker ps -a -q)
#docker rm $ (docker ps -a -q)
#docker rm -f $ (docker images -q)


